Text Mining on The Name of The Wind
…
We have to remember that those are single words, not bigrams. One thing that we could to get a more accurate analysis is getting the bigrams for each line and check if the first word is a negation. Then multiply by -1 the second term.

So far so good! The book is a drama. Lets check index = 25

notw_processed %>% 
  inner_join(get_sentiments("afinn")) %>% 
  group_by(index = linenumber %/% 80) %>% 
  filter(index == 25) %>%
  arrange(value)

## Joining, by = "word"

## # A tibble: 240 x 5
## # Groups:   index [1]
##    linenumber chapter word     value index
##         <int>   <int> <chr>    <dbl> <dbl>
##  1       2000      26 terrible    -3    25
##  2       2000      26 kill        -3    25
##  3       2001      26 despair     -3    25
##  4       2002      26 terrible    -3    25
##  5       2002      26 terrible    -3    25
##  6       2003      26 died        -3    25
##  7       2004      26 terrible    -3    25
##  8       2004      26 killed      -3    25
##  9       2005      26 despair     -3    25
## 10       2005      26 dead        -3    25
## # ... with 230 more rows
…
word_counts <- notw_processed %>%
  count(chapter, word, sort = TRUE)

desc_dtm <- word_counts %>%
  cast_dtm(chapter, word, n)

library(topicmodels)

desc_lda <- LDA(desc_dtm, k = 4, control = list(seed = 1234))
tidy_lda <- tidy(desc_lda)

tidy_lda

## # A tibble: 47,096 x 3
##    topic term        beta
##    <int> <chr>      <dbl>
##  1     1 tehlu  2.96e-  4
##  2     2 tehlu  4.01e-  4
##  3     3 tehlu  2.35e-  4
##  4     4 tehlu  5.28e-  3
##  5     1 kvothe 1.04e-  2
##  6     2 kvothe 3.28e-  4
##  7     3 kvothe 2.91e-  3
##  8     4 kvothe 4.05e-  4
##  9     1 kote   7.48e-  3
## 10     2 kote   1.09e-100
## # ... with 47,086 more rows
…
