San Francisco Trees
…
trees <- sf_trees %>%
  mutate_if(is.character, fct_explicit_na)

Basic data visualization and exploratory analysis

trees %>%
  count(species) %>%
  arrange(n)

## # A tibble: 571 x 2
##    species                                             n
##    <fct>                                           <int>
##  1 Acer campestre :: Hedge Maple                       1
##  2 Acer ginnela :: Amur Maple                          1
##  3 Acer paxii :: Evergreen Maple                       1
##  4 Acer platanoides 'Crimson King' :: Norway maple     1
##  5 Acer platanoides :: Norway Maple                    1
##  6 Acer saccharum :: Sugar Maple                       1
##  7 Acer tegmentosum :: Manchurian snakebark maple      1
##  8 Acer x 'Autumn Blaze' :: Hybrid Maple               1
##  9 Aesculus spp :: Horsechestnut                       1
## 10 Alnus rubra :: Red Alder                            1
## # ... with 561 more rows
…
So visually we can see that there are some factors that its count is really low. For demonstration purposes, Im going to use fct_lump to collapse a little bit the species column.

trees_lump <- trees %>% 
  mutate(species = fct_lump_min(species, 100))

trees_lump %>% 
  count(species, sort = TRUE)

## # A tibble: 156 x 2
##    species                                            n
##    <fct>                                          <int>
##  1 Tree(s) ::                                     11629
##  2 Platanus x hispanica :: Sycamore: London Plane 11557
##  3 Metrosideros excelsa :: New Zealand Xmas Tree   8744
##  4 Lophostemon confertus :: Brisbane Box           8581
##  5 Other                                           7842
##  6 Tristaniopsis laurina :: Swamp Myrtle           7197
##  7 Pittosporum undulatum :: Victorian Box          7122
##  8 Prunus cerasifera :: Cherry Plum                6716
##  9 Magnolia grandiflora :: Southern Magnolia       6285
## 10 Arbutus 'Marina' :: Hybrid Strawberry Tree      5702
## # ... with 146 more rows

trees_lump %>%
  filter(species == "Other")

## # A tibble: 7,842 x 12
##    tree_id legal_status species address site_order site_info caretaker
##      <dbl> <fct>        <fct>   <fct>        <dbl> <fct>     <fct>    
##  1   30350 DPW Maintai~ Other   440 Ar~          1 Sidewalk~ Private  
##  2   53216 DPW Maintai~ Other   828 Ar~          1 Sidewalk~ Private  
##  3   53249 DPW Maintai~ Other   348 Te~          1 Sidewalk~ Private  
##  4   53309 Permitted S~ Other   1775 1~          1 Sidewalk~ Private  
##  5   53302 Permitted S~ Other   38 Lev~          1 Sidewalk~ Private  
##  6   53426 Permitted S~ Other   26 Par~          1 Sidewalk~ Private  
##  7   53496 DPW Maintai~ Other   37 Coo~          1 Sidewalk~ Private  
##  8   53927 Permitted S~ Other   616-61~          1 Sidewalk~ Private  
##  9   53947 DPW Maintai~ Other   100 Ga~          1 Sidewalk~ Private  
## 10   54018 DPW Maintai~ Other   850 35~          1 Sidewalk~ Private  
## # ... with 7,832 more rows, and 5 more variables: date <date>, dbh <dbl>,
## #   plot_size <fct>, latitude <dbl>, longitude <dbl>
…
trees_train <- juice(trees_recipe)
trees_testing <- trees_recipe %>%
  bake(trees_test)

library(doParallel)
doParallel::registerDoParallel()
trees_ranger <- rand_forest(trees = 100, mode = "classification") %>%
  set_engine("ranger", importance = "permutation") %>%
  fit(isPrivate ~ ., data = trees_train)

predict(trees_ranger, trees_testing)

## # A tibble: 47,506 x 1
##    .pred_class
##    <fct>      
##  1 Private    
##  2 Private    
##  3 Private    
##  4 Private    
##  5 Private    
##  6 Private    
##  7 Private    
##  8 Private    
##  9 Private    
## 10 Private    
## # ... with 47,496 more rows
…
